{
   "stable": "Stability over newer features (recommended)",
   "rc": "Testing before the next stable release",
   "devel": "Daily built development releases",
   "edge": "Here be dragons",
   "halium-devel": "Experimental ports to newer Halium"
}
